{
    "products": [
        {
            "image_path": "./images/objects/Complan.png",
            "product_name": "Complan",
            "product_id": 0,
            "product_price": 7
        },
        {
            "image_path": "./images/objects/Dove.png",
            "product_name": "Dove",
            "product_id": 1,
            "product_price": 6
        },
        {
            "image_path": "./images/objects/Kellogg_Corn_Flakes.png",
            "product_name": "Corn Flakes",
            "product_id": 2,
            "product_price": 9
        },
        {
            "image_path": "./images/objects/Kellogg_Special_K.png",
            "product_name": "Special K",
            "product_id": 3,
            "product_price": 11
        },
        {
            "image_path": "./images/objects/Oats.png",
            "product_name": "Oats",
            "product_id": 4,
            "product_price": 15
        },
        {
            "image_path": "./images/objects/Tropicana.png",
            "product_name": "Tropicana",
            "product_id": 5,
            "product_price": 12
        }
    ]
}
